…
In the NY NOAA dataset there are 9 variables which includes a character weather station ID, date of observation, and variables for precipitation observed, snowfall, snow depth, and temperature maximum and minimums. The dataset includes 2595176 observations (one observation for each day starting on January 1st, 1981 and ending on December 31st, 2010). Precipitation was in tenths of a mm and has been converted to mm. Snowfall and depth are in mm, temperature max and minimums were in tenths of a degree Celsius and have been converted.

The average amount of precipitation is 2.9823 mm, the average maximum temperature of the full dataset is 13.9798°C with a median maximum temperature of 15°C. The average minimum temperature of the full dataset is 3.0285°C with a median minimum temperature of 15°C. However, these values should be cautiously reported due to the amount of missing/NA data which seems to be significant.

``` r
ny_noaa_data %>% 
  group_by(snow) %>% 
  summarise(n = n()) %>% 
  arrange(desc(n))
```

    ## # A tibble: 282 x 2
    ##     snow       n
    ##    <int>   <int>
    ##  1     0 2008508
    ##  2    NA  381221
    ##  3    25   31022
    ##  4    13   23095
    ##  5    51   18274
    ##  6    76   10173
    ##  7     8    9962
    ##  8     5    9748
    ##  9    38    9197
    ## 10     3    8790
    ## # ... with 272 more rows
…
